Rain-on-Snow Distributional Learning Model
…
A nice tabular dataset is now ready for analysis:

dat

# A tibble: 305,856 × 12
       x     y  hour temperature_2m total_precipitation_hourly snowfall_hourly
   <dbl> <dbl> <dbl>          <dbl>                      <dbl>           <dbl>
 1  43.5  16.5     1           285.                0.00000437                0
 2  43.5  16.5     2           285.                0.00000543                0
 3  43.5  16.5     3           284.                0.00000180                0
 4  43.5  16.5     4           284.                0.000000292               0
 5  43.5  16.5     5           284.                0                         0
 6  43.5  16.5     6           284.                0                         0
 7  43.5  16.5     7           285.                0                         0
 8  43.5  16.5     8           285.                0.000000542               0
 9  43.5  16.5     9           286.                0.00000969                0
10  43.5  16.5    10           287.                0.0000572                 0
# ℹ 305,846 more rows
# ℹ 6 more variables: snowmelt_hourly <dbl>, snow_depth <dbl>,
#   snow_depth_water_equivalent <dbl>, runoff_hourly <dbl>,
#   surface_runoff_hourly <dbl>, sub_surface_runoff_hourly <dbl>
…
Distributional learning wrappers can be found under R/ in this repository. These are needed because the base methods (e.g., quantregForest::quantregForest()) are geared towards quantiles, not distributions. The probaverse is used for the handling of distributions.

models <- dat |>
  nest(data = !c(x, y)) |>
  mutate(dl_rqforest = map(
    data,
    dl_rqforest,
    yname = "runoff_hourly",
    xnames = c("total_precipitation_hourly", "snowmelt_hourly")
  ))

# Inspect
models

# A tibble: 72 × 4
       x     y data                  dl_rqforest
   <dbl> <dbl> <list>                <list>     
 1  43.5  16.5 <tibble [4,248 × 10]> <dl_rqfrs> 
 2  44.5  16.5 <tibble [4,248 × 10]> <dl_rqfrs> 
 3  45.5  16.5 <tibble [4,248 × 10]> <dl_rqfrs> 
 4  46.5  16.5 <tibble [4,248 × 10]> <dl_rqfrs> 
 5  47.5  16.5 <tibble [4,248 × 10]> <dl_rqfrs> 
 6  48.5  16.5 <tibble [4,248 × 10]> <dl_rqfrs> 
 7  43.5  15.5 <tibble [4,248 × 10]> <dl_rqfrs> 
 8  44.5  15.5 <tibble [4,248 × 10]> <dl_rqfrs> 
 9  45.5  15.5 <tibble [4,248 × 10]> <dl_rqfrs> 
10  46.5  15.5 <tibble [4,248 × 10]> <dl_rqfrs> 
# ℹ 62 more rows

Predictions on Training Data

Generate predictive distributions for each hour on record. At this stage, we are not concerning ourselves with a holdout set, since this work is for expository purposes at this time.

pred <- models |>
  mutate(hat = map2(dl_rqforest, data, predict)) |>
  select(!dl_rqforest) |>
  unnest(c(data, hat))

# Inspect
pred

# A tibble: 305,856 × 13
       x     y  hour temperature_2m total_precipitation_hourly snowfall_hourly
   <dbl> <dbl> <dbl>          <dbl>                      <dbl>           <dbl>
 1  43.5  16.5     1           285.                0.00000437                0
 2  43.5  16.5     2           285.                0.00000543                0
 3  43.5  16.5     3           284.                0.00000180                0
 4  43.5  16.5     4           284.                0.000000292               0
 5  43.5  16.5     5           284.                0                         0
 6  43.5  16.5     6           284.                0                         0
 7  43.5  16.5     7           285.                0                         0
 8  43.5  16.5     8           285.                0.000000542               0
 9  43.5  16.5     9           286.                0.00000969                0
10  43.5  16.5    10           287.                0.0000572                 0
# ℹ 305,846 more rows
# ℹ 7 more variables: snowmelt_hourly <dbl>, snow_depth <dbl>,
#   snow_depth_water_equivalent <dbl>, runoff_hourly <dbl>,
#   surface_runoff_hourly <dbl>, sub_surface_runoff_hourly <dbl>, hat <list>
…
# Inspect
qscores_model

# A tibble: 7,128 × 4
       x     y   tau qscore_model
   <dbl> <dbl> <dbl>        <dbl>
 1  43.5   5.5  0.01  0.000000454
 2  43.5   5.5  0.02  0.000000879
 3  43.5   5.5  0.03  0.00000129 
 4  43.5   5.5  0.04  0.00000170 
 5  43.5   5.5  0.05  0.00000207 
 6  43.5   5.5  0.06  0.00000240 
 7  43.5   5.5  0.07  0.00000273 
 8  43.5   5.5  0.08  0.00000306 
 9  43.5   5.5  0.09  0.00000334 
10  43.5   5.5  0.1   0.00000361 
# ℹ 7,118 more rows
…
